\relax 
\providecommand\hyper@newdestlabel[2]{}
\providecommand\HyField@AuxAddToFields[1]{}
\providecommand\HyField@AuxAddToCoFields[2]{}
\gdef \LT@i {\LT@entry 
    {1}{75.96573pt}\LT@entry 
    {1}{430.493pt}}
\gdef \LT@ii {\LT@entry 
    {1}{75.96573pt}\LT@entry 
    {1}{430.493pt}}
\gdef \LT@iii {\LT@entry 
    {1}{75.96573pt}\LT@entry 
    {1}{430.493pt}}
\gdef \LT@iv {\LT@entry 
    {1}{75.96573pt}\LT@entry 
    {1}{430.493pt}}
\gdef \@abspage@last{3}
